('/Users/blord/work/src/github.com/sensedata1/AudioFormatDetectiveDocker/build/AudioFormatDetectiveCON/PKG-00.pkg',
 {'BINARY': 1,
  'DATA': 1,
  'EXECUTABLE': 1,
  'EXTENSION': 1,
  'PYMODULE': 1,
  'PYSOURCE': 1,
  'PYZ': 0},
 [('PYZ-00.pyz',
   '/Users/blord/work/src/github.com/sensedata1/AudioFormatDetectiveDocker/build/AudioFormatDetectiveCON/PYZ-00.pyz',
   'PYZ'),
  ('_struct',
   '/Library/Frameworks/Python.framework/Versions/3.7/lib/python3.7/lib-dynload/_struct.cpython-37m-darwin.so',
   'EXTENSION'),
  ('zlib',
   '/Library/Frameworks/Python.framework/Versions/3.7/lib/python3.7/lib-dynload/zlib.cpython-37m-darwin.so',
   'EXTENSION'),
  ('struct',
   '/Library/Frameworks/Python.framework/Versions/3.7/lib/python3.7/struct.pyo',
   'PYMODULE'),
  ('pyimod01_os_path',
   '/Library/Frameworks/Python.framework/Versions/3.7/lib/python3.7/site-packages/PyInstaller/loader/pyimod01_os_path.pyc',
   'PYMODULE'),
  ('pyimod02_archive',
   '/Library/Frameworks/Python.framework/Versions/3.7/lib/python3.7/site-packages/PyInstaller/loader/pyimod02_archive.pyc',
   'PYMODULE'),
  ('pyimod03_importers',
   '/Library/Frameworks/Python.framework/Versions/3.7/lib/python3.7/site-packages/PyInstaller/loader/pyimod03_importers.pyc',
   'PYMODULE'),
  ('pyiboot01_bootstrap',
   '/Library/Frameworks/Python.framework/Versions/3.7/lib/python3.7/site-packages/PyInstaller/loader/pyiboot01_bootstrap.py',
   'PYSOURCE'),
  ('pyi_rth_multiprocessing',
   '/Library/Frameworks/Python.framework/Versions/3.7/lib/python3.7/site-packages/PyInstaller/loader/rthooks/pyi_rth_multiprocessing.py',
   'PYSOURCE'),
  ('AudioFormatDetectiveCON',
   '/Users/blord/work/src/github.com/sensedata1/AudioFormatDetectiveDocker/AudioFormatDetectiveCON.py',
   'PYSOURCE'),
  ('Python',
   '/Library/Frameworks/Python.framework/Versions/3.7/Python',
   'BINARY'),
  ('_contextvars',
   '/Library/Frameworks/Python.framework/Versions/3.7/lib/python3.7/lib-dynload/_contextvars.cpython-37m-darwin.so',
   'EXTENSION'),
  ('_decimal',
   '/Library/Frameworks/Python.framework/Versions/3.7/lib/python3.7/lib-dynload/_decimal.cpython-37m-darwin.so',
   'EXTENSION'),
  ('mmap',
   '/Library/Frameworks/Python.framework/Versions/3.7/lib/python3.7/lib-dynload/mmap.cpython-37m-darwin.so',
   'EXTENSION'),
  ('_ctypes',
   '/Library/Frameworks/Python.framework/Versions/3.7/lib/python3.7/lib-dynload/_ctypes.cpython-37m-darwin.so',
   'EXTENSION'),
  ('array',
   '/Library/Frameworks/Python.framework/Versions/3.7/lib/python3.7/lib-dynload/array.cpython-37m-darwin.so',
   'EXTENSION'),
  ('_queue',
   '/Library/Frameworks/Python.framework/Versions/3.7/lib/python3.7/lib-dynload/_queue.cpython-37m-darwin.so',
   'EXTENSION'),
  ('_multiprocessing',
   '/Library/Frameworks/Python.framework/Versions/3.7/lib/python3.7/lib-dynload/_multiprocessing.cpython-37m-darwin.so',
   'EXTENSION'),
  ('resource',
   '/Library/Frameworks/Python.framework/Versions/3.7/lib/python3.7/lib-dynload/resource.cpython-37m-darwin.so',
   'EXTENSION'),
  ('_pickle',
   '/Library/Frameworks/Python.framework/Versions/3.7/lib/python3.7/lib-dynload/_pickle.cpython-37m-darwin.so',
   'EXTENSION'),
  ('_datetime',
   '/Library/Frameworks/Python.framework/Versions/3.7/lib/python3.7/lib-dynload/_datetime.cpython-37m-darwin.so',
   'EXTENSION'),
  ('_posixsubprocess',
   '/Library/Frameworks/Python.framework/Versions/3.7/lib/python3.7/lib-dynload/_posixsubprocess.cpython-37m-darwin.so',
   'EXTENSION'),
  ('_ssl',
   '/Library/Frameworks/Python.framework/Versions/3.7/lib/python3.7/lib-dynload/_ssl.cpython-37m-darwin.so',
   'EXTENSION'),
  ('_codecs_hk',
   '/Library/Frameworks/Python.framework/Versions/3.7/lib/python3.7/lib-dynload/_codecs_hk.cpython-37m-darwin.so',
   'EXTENSION'),
  ('unicodedata',
   '/Library/Frameworks/Python.framework/Versions/3.7/lib/python3.7/lib-dynload/unicodedata.cpython-37m-darwin.so',
   'EXTENSION'),
  ('_codecs_iso2022',
   '/Library/Frameworks/Python.framework/Versions/3.7/lib/python3.7/lib-dynload/_codecs_iso2022.cpython-37m-darwin.so',
   'EXTENSION'),
  ('_codecs_kr',
   '/Library/Frameworks/Python.framework/Versions/3.7/lib/python3.7/lib-dynload/_codecs_kr.cpython-37m-darwin.so',
   'EXTENSION'),
  ('_codecs_tw',
   '/Library/Frameworks/Python.framework/Versions/3.7/lib/python3.7/lib-dynload/_codecs_tw.cpython-37m-darwin.so',
   'EXTENSION'),
  ('_codecs_cn',
   '/Library/Frameworks/Python.framework/Versions/3.7/lib/python3.7/lib-dynload/_codecs_cn.cpython-37m-darwin.so',
   'EXTENSION'),
  ('_codecs_jp',
   '/Library/Frameworks/Python.framework/Versions/3.7/lib/python3.7/lib-dynload/_codecs_jp.cpython-37m-darwin.so',
   'EXTENSION'),
  ('_multibytecodec',
   '/Library/Frameworks/Python.framework/Versions/3.7/lib/python3.7/lib-dynload/_multibytecodec.cpython-37m-darwin.so',
   'EXTENSION'),
  ('_heapq',
   '/Library/Frameworks/Python.framework/Versions/3.7/lib/python3.7/lib-dynload/_heapq.cpython-37m-darwin.so',
   'EXTENSION'),
  ('_opcode',
   '/Library/Frameworks/Python.framework/Versions/3.7/lib/python3.7/lib-dynload/_opcode.cpython-37m-darwin.so',
   'EXTENSION'),
  ('readline',
   '/Library/Frameworks/Python.framework/Versions/3.7/lib/python3.7/lib-dynload/readline.cpython-37m-darwin.so',
   'EXTENSION'),
  ('pyexpat',
   '/Library/Frameworks/Python.framework/Versions/3.7/lib/python3.7/lib-dynload/pyexpat.cpython-37m-darwin.so',
   'EXTENSION'),
  ('_scproxy',
   '/Library/Frameworks/Python.framework/Versions/3.7/lib/python3.7/lib-dynload/_scproxy.cpython-37m-darwin.so',
   'EXTENSION'),
  ('termios',
   '/Library/Frameworks/Python.framework/Versions/3.7/lib/python3.7/lib-dynload/termios.cpython-37m-darwin.so',
   'EXTENSION'),
  ('_sha1',
   '/Library/Frameworks/Python.framework/Versions/3.7/lib/python3.7/lib-dynload/_sha1.cpython-37m-darwin.so',
   'EXTENSION'),
  ('_md5',
   '/Library/Frameworks/Python.framework/Versions/3.7/lib/python3.7/lib-dynload/_md5.cpython-37m-darwin.so',
   'EXTENSION'),
  ('_sha256',
   '/Library/Frameworks/Python.framework/Versions/3.7/lib/python3.7/lib-dynload/_sha256.cpython-37m-darwin.so',
   'EXTENSION'),
  ('_sha512',
   '/Library/Frameworks/Python.framework/Versions/3.7/lib/python3.7/lib-dynload/_sha512.cpython-37m-darwin.so',
   'EXTENSION'),
  ('_blake2',
   '/Library/Frameworks/Python.framework/Versions/3.7/lib/python3.7/lib-dynload/_blake2.cpython-37m-darwin.so',
   'EXTENSION'),
  ('_sha3',
   '/Library/Frameworks/Python.framework/Versions/3.7/lib/python3.7/lib-dynload/_sha3.cpython-37m-darwin.so',
   'EXTENSION'),
  ('_hashlib',
   '/Library/Frameworks/Python.framework/Versions/3.7/lib/python3.7/lib-dynload/_hashlib.cpython-37m-darwin.so',
   'EXTENSION'),
  ('_bisect',
   '/Library/Frameworks/Python.framework/Versions/3.7/lib/python3.7/lib-dynload/_bisect.cpython-37m-darwin.so',
   'EXTENSION'),
  ('_random',
   '/Library/Frameworks/Python.framework/Versions/3.7/lib/python3.7/lib-dynload/_random.cpython-37m-darwin.so',
   'EXTENSION'),
  ('_bz2',
   '/Library/Frameworks/Python.framework/Versions/3.7/lib/python3.7/lib-dynload/_bz2.cpython-37m-darwin.so',
   'EXTENSION'),
  ('_lzma',
   '/Library/Frameworks/Python.framework/Versions/3.7/lib/python3.7/lib-dynload/_lzma.cpython-37m-darwin.so',
   'EXTENSION'),
  ('grp',
   '/Library/Frameworks/Python.framework/Versions/3.7/lib/python3.7/lib-dynload/grp.cpython-37m-darwin.so',
   'EXTENSION'),
  ('binascii',
   '/Library/Frameworks/Python.framework/Versions/3.7/lib/python3.7/lib-dynload/binascii.cpython-37m-darwin.so',
   'EXTENSION'),
  ('_socket',
   '/Library/Frameworks/Python.framework/Versions/3.7/lib/python3.7/lib-dynload/_socket.cpython-37m-darwin.so',
   'EXTENSION'),
  ('select',
   '/Library/Frameworks/Python.framework/Versions/3.7/lib/python3.7/lib-dynload/select.cpython-37m-darwin.so',
   'EXTENSION'),
  ('math',
   '/Library/Frameworks/Python.framework/Versions/3.7/lib/python3.7/lib-dynload/math.cpython-37m-darwin.so',
   'EXTENSION'),
  ('audioop',
   '/Library/Frameworks/Python.framework/Versions/3.7/lib/python3.7/lib-dynload/audioop.cpython-37m-darwin.so',
   'EXTENSION'),
  ('_json',
   '/Library/Frameworks/Python.framework/Versions/3.7/lib/python3.7/lib-dynload/_json.cpython-37m-darwin.so',
   'EXTENSION'),
  ('_uuid',
   '/Library/Frameworks/Python.framework/Versions/3.7/lib/python3.7/lib-dynload/_uuid.cpython-37m-darwin.so',
   'EXTENSION'),
  ('audiotools.encoders',
   '/Library/Frameworks/Python.framework/Versions/3.7/lib/python3.7/site-packages/audiotools/encoders.cpython-37m-darwin.so',
   'EXTENSION'),
  ('audiotools.decoders',
   '/Library/Frameworks/Python.framework/Versions/3.7/lib/python3.7/site-packages/audiotools/decoders.cpython-37m-darwin.so',
   'EXTENSION'),
  ('audiotools._ogg',
   '/Library/Frameworks/Python.framework/Versions/3.7/lib/python3.7/site-packages/audiotools/_ogg.cpython-37m-darwin.so',
   'EXTENSION'),
  ('audiotools._accuraterip',
   '/Library/Frameworks/Python.framework/Versions/3.7/lib/python3.7/site-packages/audiotools/_accuraterip.cpython-37m-darwin.so',
   'EXTENSION'),
  ('audiotools.replaygain',
   '/Library/Frameworks/Python.framework/Versions/3.7/lib/python3.7/site-packages/audiotools/replaygain.cpython-37m-darwin.so',
   'EXTENSION'),
  ('audiotools.pcmconverter',
   '/Library/Frameworks/Python.framework/Versions/3.7/lib/python3.7/site-packages/audiotools/pcmconverter.cpython-37m-darwin.so',
   'EXTENSION'),
  ('audiotools.bitstream',
   '/Library/Frameworks/Python.framework/Versions/3.7/lib/python3.7/site-packages/audiotools/bitstream.cpython-37m-darwin.so',
   'EXTENSION'),
  ('fcntl',
   '/Library/Frameworks/Python.framework/Versions/3.7/lib/python3.7/lib-dynload/fcntl.cpython-37m-darwin.so',
   'EXTENSION'),
  ('audiotools.pcm',
   '/Library/Frameworks/Python.framework/Versions/3.7/lib/python3.7/site-packages/audiotools/pcm.cpython-37m-darwin.so',
   'EXTENSION'),
  ('libcrypto.1.1.dylib',
   '/Library/Frameworks/Python.framework/Versions/3.7/lib/libcrypto.1.1.dylib',
   'BINARY'),
  ('libssl.1.1.dylib',
   '/Library/Frameworks/Python.framework/Versions/3.7/lib/libssl.1.1.dylib',
   'BINARY'),
  ('libncursesw.5.dylib',
   '/Library/Frameworks/Python.framework/Versions/3.7/lib/libncursesw.5.dylib',
   'BINARY'),
  ('libmp3lame.0.dylib',
   '/usr/local/opt/lame/lib/libmp3lame.0.dylib',
   'BINARY'),
  ('base_library.zip',
   '/Users/blord/work/src/github.com/sensedata1/AudioFormatDetectiveDocker/build/AudioFormatDetectiveCON/base_library.zip',
   'DATA'),
  ('speech_recognition/pocketsphinx-data/en-US/acoustic-model/sendump',
   '/Users/blord/Library/Python/3.7/lib/python/site-packages/speech_recognition/pocketsphinx-data/en-US/acoustic-model/sendump',
   'DATA'),
  ('speech_recognition/flac-linux-x86_64',
   '/Users/blord/Library/Python/3.7/lib/python/site-packages/speech_recognition/flac-linux-x86_64',
   'DATA'),
  ('speech_recognition/flac-win32.exe',
   '/Users/blord/Library/Python/3.7/lib/python/site-packages/speech_recognition/flac-win32.exe',
   'DATA'),
  ('speech_recognition/pocketsphinx-data/en-US/language-model.lm.bin',
   '/Users/blord/Library/Python/3.7/lib/python/site-packages/speech_recognition/pocketsphinx-data/en-US/language-model.lm.bin',
   'DATA'),
  ('speech_recognition/pocketsphinx-data/en-US/acoustic-model/noisedict',
   '/Users/blord/Library/Python/3.7/lib/python/site-packages/speech_recognition/pocketsphinx-data/en-US/acoustic-model/noisedict',
   'DATA'),
  ('speech_recognition/pocketsphinx-data/en-US/LICENSE.txt',
   '/Users/blord/Library/Python/3.7/lib/python/site-packages/speech_recognition/pocketsphinx-data/en-US/LICENSE.txt',
   'DATA'),
  ('speech_recognition/flac-linux-x86',
   '/Users/blord/Library/Python/3.7/lib/python/site-packages/speech_recognition/flac-linux-x86',
   'DATA'),
  ('speech_recognition/pocketsphinx-data/en-US/acoustic-model/mdef',
   '/Users/blord/Library/Python/3.7/lib/python/site-packages/speech_recognition/pocketsphinx-data/en-US/acoustic-model/mdef',
   'DATA'),
  ('speech_recognition/pocketsphinx-data/en-US/acoustic-model/means',
   '/Users/blord/Library/Python/3.7/lib/python/site-packages/speech_recognition/pocketsphinx-data/en-US/acoustic-model/means',
   'DATA'),
  ('speech_recognition/pocketsphinx-data/en-US/acoustic-model/feat.params',
   '/Users/blord/Library/Python/3.7/lib/python/site-packages/speech_recognition/pocketsphinx-data/en-US/acoustic-model/feat.params',
   'DATA'),
  ('include/python3.7m/pyconfig.h',
   '/Library/Frameworks/Python.framework/Versions/3.7/include/python3.7m/pyconfig.h',
   'DATA'),
  ('speech_recognition/flac-mac',
   '/Users/blord/Library/Python/3.7/lib/python/site-packages/speech_recognition/flac-mac',
   'DATA'),
  ('speech_recognition/pocketsphinx-data/en-US/acoustic-model/transition_matrices',
   '/Users/blord/Library/Python/3.7/lib/python/site-packages/speech_recognition/pocketsphinx-data/en-US/acoustic-model/transition_matrices',
   'DATA'),
  ('speech_recognition/pocketsphinx-data/en-US/acoustic-model/variances',
   '/Users/blord/Library/Python/3.7/lib/python/site-packages/speech_recognition/pocketsphinx-data/en-US/acoustic-model/variances',
   'DATA'),
  ('speech_recognition/pocketsphinx-data/en-US/acoustic-model/README',
   '/Users/blord/Library/Python/3.7/lib/python/site-packages/speech_recognition/pocketsphinx-data/en-US/acoustic-model/README',
   'DATA'),
  ('speech_recognition/pocketsphinx-data/en-US/pronounciation-dictionary.dict',
   '/Users/blord/Library/Python/3.7/lib/python/site-packages/speech_recognition/pocketsphinx-data/en-US/pronounciation-dictionary.dict',
   'DATA'),
  ('lib/python3.7/config-3.7m-darwin/Makefile',
   '/Library/Frameworks/Python.framework/Versions/3.7/lib/python3.7/config-3.7m-darwin/Makefile',
   'DATA')],
 False,
 False,
 False)
