('/Users/blord/work/src/github.com/sensedata1/AudioFormatDetectiveDocker/build/AudioFormatDetectiveCON/PYZ-00.pyz',
 [('multiprocessing.popen_fork',
   '/Library/Frameworks/Python.framework/Versions/3.7/lib/python3.7/multiprocessing/popen_fork.py',
   'PYMODULE'),
  ('multiprocessing.connection',
   '/Library/Frameworks/Python.framework/Versions/3.7/lib/python3.7/multiprocessing/connection.py',
   'PYMODULE'),
  ('multiprocessing.resource_sharer',
   '/Library/Frameworks/Python.framework/Versions/3.7/lib/python3.7/multiprocessing/resource_sharer.py',
   'PYMODULE'),
  ('multiprocessing.process',
   '/Library/Frameworks/Python.framework/Versions/3.7/lib/python3.7/multiprocessing/process.py',
   'PYMODULE'),
  ('xmlrpc.client',
   '/Library/Frameworks/Python.framework/Versions/3.7/lib/python3.7/xmlrpc/client.py',
   'PYMODULE'),
  ('xmlrpc',
   '/Library/Frameworks/Python.framework/Versions/3.7/lib/python3.7/xmlrpc/__init__.py',
   'PYMODULE'),
  ('decimal',
   '/Library/Frameworks/Python.framework/Versions/3.7/lib/python3.7/decimal.py',
   'PYMODULE'),
  ('_pydecimal',
   '/Library/Frameworks/Python.framework/Versions/3.7/lib/python3.7/_pydecimal.py',
   'PYMODULE'),
  ('contextvars',
   '/Library/Frameworks/Python.framework/Versions/3.7/lib/python3.7/contextvars.py',
   'PYMODULE'),
  ('numbers',
   '/Library/Frameworks/Python.framework/Versions/3.7/lib/python3.7/numbers.py',
   'PYMODULE'),
  ('hmac',
   '/Library/Frameworks/Python.framework/Versions/3.7/lib/python3.7/hmac.py',
   'PYMODULE'),
  ('multiprocessing.context',
   '/Library/Frameworks/Python.framework/Versions/3.7/lib/python3.7/multiprocessing/context.py',
   'PYMODULE'),
  ('multiprocessing.popen_forkserver',
   '/Library/Frameworks/Python.framework/Versions/3.7/lib/python3.7/multiprocessing/popen_forkserver.py',
   'PYMODULE'),
  ('multiprocessing.popen_spawn_posix',
   '/Library/Frameworks/Python.framework/Versions/3.7/lib/python3.7/multiprocessing/popen_spawn_posix.py',
   'PYMODULE'),
  ('multiprocessing.semaphore_tracker',
   '/Library/Frameworks/Python.framework/Versions/3.7/lib/python3.7/multiprocessing/semaphore_tracker.py',
   'PYMODULE'),
  ('multiprocessing.forkserver',
   '/Library/Frameworks/Python.framework/Versions/3.7/lib/python3.7/multiprocessing/forkserver.py',
   'PYMODULE'),
  ('multiprocessing.sharedctypes',
   '/Library/Frameworks/Python.framework/Versions/3.7/lib/python3.7/multiprocessing/sharedctypes.py',
   'PYMODULE'),
  ('multiprocessing.heap',
   '/Library/Frameworks/Python.framework/Versions/3.7/lib/python3.7/multiprocessing/heap.py',
   'PYMODULE'),
  ('ctypes',
   '/Library/Frameworks/Python.framework/Versions/3.7/lib/python3.7/ctypes/__init__.py',
   'PYMODULE'),
  ('ctypes._endian',
   '/Library/Frameworks/Python.framework/Versions/3.7/lib/python3.7/ctypes/_endian.py',
   'PYMODULE'),
  ('multiprocessing.pool',
   '/Library/Frameworks/Python.framework/Versions/3.7/lib/python3.7/multiprocessing/pool.py',
   'PYMODULE'),
  ('multiprocessing.dummy',
   '/Library/Frameworks/Python.framework/Versions/3.7/lib/python3.7/multiprocessing/dummy/__init__.py',
   'PYMODULE'),
  ('multiprocessing.dummy.connection',
   '/Library/Frameworks/Python.framework/Versions/3.7/lib/python3.7/multiprocessing/dummy/connection.py',
   'PYMODULE'),
  ('queue',
   '/Library/Frameworks/Python.framework/Versions/3.7/lib/python3.7/queue.py',
   'PYMODULE'),
  ('multiprocessing.queues',
   '/Library/Frameworks/Python.framework/Versions/3.7/lib/python3.7/multiprocessing/queues.py',
   'PYMODULE'),
  ('multiprocessing.synchronize',
   '/Library/Frameworks/Python.framework/Versions/3.7/lib/python3.7/multiprocessing/synchronize.py',
   'PYMODULE'),
  ('multiprocessing.managers',
   '/Library/Frameworks/Python.framework/Versions/3.7/lib/python3.7/multiprocessing/managers.py',
   'PYMODULE'),
  ('multiprocessing.reduction',
   '/Library/Frameworks/Python.framework/Versions/3.7/lib/python3.7/multiprocessing/reduction.py',
   'PYMODULE'),
  ('multiprocessing.util',
   '/Library/Frameworks/Python.framework/Versions/3.7/lib/python3.7/multiprocessing/util.py',
   'PYMODULE'),
  ('multiprocessing.popen_spawn_win32',
   '/Library/Frameworks/Python.framework/Versions/3.7/lib/python3.7/multiprocessing/popen_spawn_win32.py',
   'PYMODULE'),
  ('multiprocessing.spawn',
   '/Library/Frameworks/Python.framework/Versions/3.7/lib/python3.7/multiprocessing/spawn.py',
   'PYMODULE'),
  ('multiprocessing',
   '/Library/Frameworks/Python.framework/Versions/3.7/lib/python3.7/multiprocessing/__init__.py',
   'PYMODULE'),
  ('posixpath',
   '/Library/Frameworks/Python.framework/Versions/3.7/lib/python3.7/posixpath.py',
   'PYMODULE'),
  ('_strptime',
   '/Library/Frameworks/Python.framework/Versions/3.7/lib/python3.7/_strptime.py',
   'PYMODULE'),
  ('_py_abc',
   '/Library/Frameworks/Python.framework/Versions/3.7/lib/python3.7/_py_abc.py',
   'PYMODULE'),
  ('typing',
   '/Library/Frameworks/Python.framework/Versions/3.7/lib/python3.7/typing.py',
   'PYMODULE'),
  ('tracemalloc',
   '/Library/Frameworks/Python.framework/Versions/3.7/lib/python3.7/tracemalloc.py',
   'PYMODULE'),
  ('stringprep',
   '/Library/Frameworks/Python.framework/Versions/3.7/lib/python3.7/stringprep.py',
   'PYMODULE'),
  ('__future__',
   '/Library/Frameworks/Python.framework/Versions/3.7/lib/python3.7/__future__.py',
   'PYMODULE'),
  ('difflib',
   '/Library/Frameworks/Python.framework/Versions/3.7/lib/python3.7/difflib.py',
   'PYMODULE'),
  ('ast',
   '/Library/Frameworks/Python.framework/Versions/3.7/lib/python3.7/ast.py',
   'PYMODULE'),
  ('inspect',
   '/Library/Frameworks/Python.framework/Versions/3.7/lib/python3.7/inspect.py',
   'PYMODULE'),
  ('cmd',
   '/Library/Frameworks/Python.framework/Versions/3.7/lib/python3.7/cmd.py',
   'PYMODULE'),
  ('bdb',
   '/Library/Frameworks/Python.framework/Versions/3.7/lib/python3.7/bdb.py',
   'PYMODULE'),
  ('opcode',
   '/Library/Frameworks/Python.framework/Versions/3.7/lib/python3.7/opcode.py',
   'PYMODULE'),
  ('dis',
   '/Library/Frameworks/Python.framework/Versions/3.7/lib/python3.7/dis.py',
   'PYMODULE'),
  ('codeop',
   '/Library/Frameworks/Python.framework/Versions/3.7/lib/python3.7/codeop.py',
   'PYMODULE'),
  ('code',
   '/Library/Frameworks/Python.framework/Versions/3.7/lib/python3.7/code.py',
   'PYMODULE'),
  ('glob',
   '/Library/Frameworks/Python.framework/Versions/3.7/lib/python3.7/glob.py',
   'PYMODULE'),
  ('shlex',
   '/Library/Frameworks/Python.framework/Versions/3.7/lib/python3.7/shlex.py',
   'PYMODULE'),
  ('runpy',
   '/Library/Frameworks/Python.framework/Versions/3.7/lib/python3.7/runpy.py',
   'PYMODULE'),
  ('importlib._bootstrap',
   '/Library/Frameworks/Python.framework/Versions/3.7/lib/python3.7/importlib/_bootstrap.py',
   'PYMODULE'),
  ('importlib._bootstrap_external',
   '/Library/Frameworks/Python.framework/Versions/3.7/lib/python3.7/importlib/_bootstrap_external.py',
   'PYMODULE'),
  ('importlib.machinery',
   '/Library/Frameworks/Python.framework/Versions/3.7/lib/python3.7/importlib/machinery.py',
   'PYMODULE'),
  ('importlib.util',
   '/Library/Frameworks/Python.framework/Versions/3.7/lib/python3.7/importlib/util.py',
   'PYMODULE'),
  ('importlib.abc',
   '/Library/Frameworks/Python.framework/Versions/3.7/lib/python3.7/importlib/abc.py',
   'PYMODULE'),
  ('importlib',
   '/Library/Frameworks/Python.framework/Versions/3.7/lib/python3.7/importlib/__init__.py',
   'PYMODULE'),
  ('pkgutil',
   '/Library/Frameworks/Python.framework/Versions/3.7/lib/python3.7/pkgutil.py',
   'PYMODULE'),
  ('xml',
   '/Library/Frameworks/Python.framework/Versions/3.7/lib/python3.7/xml/__init__.py',
   'PYMODULE'),
  ('xml.sax.expatreader',
   '/Library/Frameworks/Python.framework/Versions/3.7/lib/python3.7/xml/sax/expatreader.py',
   'PYMODULE'),
  ('xml.sax.saxutils',
   '/Library/Frameworks/Python.framework/Versions/3.7/lib/python3.7/xml/sax/saxutils.py',
   'PYMODULE'),
  ('urllib.request',
   '/Library/Frameworks/Python.framework/Versions/3.7/lib/python3.7/urllib/request.py',
   'PYMODULE'),
  ('getpass',
   '/Library/Frameworks/Python.framework/Versions/3.7/lib/python3.7/getpass.py',
   'PYMODULE'),
  ('nturl2path',
   '/Library/Frameworks/Python.framework/Versions/3.7/lib/python3.7/nturl2path.py',
   'PYMODULE'),
  ('ftplib',
   '/Library/Frameworks/Python.framework/Versions/3.7/lib/python3.7/ftplib.py',
   'PYMODULE'),
  ('netrc',
   '/Library/Frameworks/Python.framework/Versions/3.7/lib/python3.7/netrc.py',
   'PYMODULE'),
  ('http.cookiejar',
   '/Library/Frameworks/Python.framework/Versions/3.7/lib/python3.7/http/cookiejar.py',
   'PYMODULE'),
  ('urllib.response',
   '/Library/Frameworks/Python.framework/Versions/3.7/lib/python3.7/urllib/response.py',
   'PYMODULE'),
  ('urllib.error',
   '/Library/Frameworks/Python.framework/Versions/3.7/lib/python3.7/urllib/error.py',
   'PYMODULE'),
  ('xml.sax',
   '/Library/Frameworks/Python.framework/Versions/3.7/lib/python3.7/xml/sax/__init__.py',
   'PYMODULE'),
  ('xml.sax.handler',
   '/Library/Frameworks/Python.framework/Versions/3.7/lib/python3.7/xml/sax/handler.py',
   'PYMODULE'),
  ('xml.sax._exceptions',
   '/Library/Frameworks/Python.framework/Versions/3.7/lib/python3.7/xml/sax/_exceptions.py',
   'PYMODULE'),
  ('xml.sax.xmlreader',
   '/Library/Frameworks/Python.framework/Versions/3.7/lib/python3.7/xml/sax/xmlreader.py',
   'PYMODULE'),
  ('xml.parsers',
   '/Library/Frameworks/Python.framework/Versions/3.7/lib/python3.7/xml/parsers/__init__.py',
   'PYMODULE'),
  ('xml.parsers.expat',
   '/Library/Frameworks/Python.framework/Versions/3.7/lib/python3.7/xml/parsers/expat.py',
   'PYMODULE'),
  ('plistlib',
   '/Library/Frameworks/Python.framework/Versions/3.7/lib/python3.7/plistlib.py',
   'PYMODULE'),
  ('platform',
   '/Library/Frameworks/Python.framework/Versions/3.7/lib/python3.7/platform.py',
   'PYMODULE'),
  ('urllib.parse',
   '/Library/Frameworks/Python.framework/Versions/3.7/lib/python3.7/urllib/parse.py',
   'PYMODULE'),
  ('tempfile',
   '/Library/Frameworks/Python.framework/Versions/3.7/lib/python3.7/tempfile.py',
   'PYMODULE'),
  ('tty',
   '/Library/Frameworks/Python.framework/Versions/3.7/lib/python3.7/tty.py',
   'PYMODULE'),
  ('pydoc_data',
   '/Library/Frameworks/Python.framework/Versions/3.7/lib/python3.7/pydoc_data/__init__.py',
   'PYMODULE'),
  ('pydoc_data.topics',
   '/Library/Frameworks/Python.framework/Versions/3.7/lib/python3.7/pydoc_data/topics.py',
   'PYMODULE'),
  ('html.entities',
   '/Library/Frameworks/Python.framework/Versions/3.7/lib/python3.7/html/entities.py',
   'PYMODULE'),
  ('html',
   '/Library/Frameworks/Python.framework/Versions/3.7/lib/python3.7/html/__init__.py',
   'PYMODULE'),
  ('ssl',
   '/Library/Frameworks/Python.framework/Versions/3.7/lib/python3.7/ssl.py',
   'PYMODULE'),
  ('http.client',
   '/Library/Frameworks/Python.framework/Versions/3.7/lib/python3.7/http/client.py',
   'PYMODULE'),
  ('mimetypes',
   '/Library/Frameworks/Python.framework/Versions/3.7/lib/python3.7/mimetypes.py',
   'PYMODULE'),
  ('socketserver',
   '/Library/Frameworks/Python.framework/Versions/3.7/lib/python3.7/socketserver.py',
   'PYMODULE'),
  ('http',
   '/Library/Frameworks/Python.framework/Versions/3.7/lib/python3.7/http/__init__.py',
   'PYMODULE'),
  ('http.server',
   '/Library/Frameworks/Python.framework/Versions/3.7/lib/python3.7/http/server.py',
   'PYMODULE'),
  ('optparse',
   '/Library/Frameworks/Python.framework/Versions/3.7/lib/python3.7/optparse.py',
   'PYMODULE'),
  ('uu',
   '/Library/Frameworks/Python.framework/Versions/3.7/lib/python3.7/uu.py',
   'PYMODULE'),
  ('quopri',
   '/Library/Frameworks/Python.framework/Versions/3.7/lib/python3.7/quopri.py',
   'PYMODULE'),
  ('email.feedparser',
   '/Library/Frameworks/Python.framework/Versions/3.7/lib/python3.7/email/feedparser.py',
   'PYMODULE'),
  ('email.parser',
   '/Library/Frameworks/Python.framework/Versions/3.7/lib/python3.7/email/parser.py',
   'PYMODULE'),
  ('email',
   '/Library/Frameworks/Python.framework/Versions/3.7/lib/python3.7/email/__init__.py',
   'PYMODULE'),
  ('calendar',
   '/Library/Frameworks/Python.framework/Versions/3.7/lib/python3.7/calendar.py',
   'PYMODULE'),
  ('email._parseaddr',
   '/Library/Frameworks/Python.framework/Versions/3.7/lib/python3.7/email/_parseaddr.py',
   'PYMODULE'),
  ('email.utils',
   '/Library/Frameworks/Python.framework/Versions/3.7/lib/python3.7/email/utils.py',
   'PYMODULE'),
  ('email.errors',
   '/Library/Frameworks/Python.framework/Versions/3.7/lib/python3.7/email/errors.py',
   'PYMODULE'),
  ('email.header',
   '/Library/Frameworks/Python.framework/Versions/3.7/lib/python3.7/email/header.py',
   'PYMODULE'),
  ('email._policybase',
   '/Library/Frameworks/Python.framework/Versions/3.7/lib/python3.7/email/_policybase.py',
   'PYMODULE'),
  ('email.base64mime',
   '/Library/Frameworks/Python.framework/Versions/3.7/lib/python3.7/email/base64mime.py',
   'PYMODULE'),
  ('email.encoders',
   '/Library/Frameworks/Python.framework/Versions/3.7/lib/python3.7/email/encoders.py',
   'PYMODULE'),
  ('email.charset',
   '/Library/Frameworks/Python.framework/Versions/3.7/lib/python3.7/email/charset.py',
   'PYMODULE'),
  ('base64',
   '/Library/Frameworks/Python.framework/Versions/3.7/lib/python3.7/base64.py',
   'PYMODULE'),
  ('email._encoded_words',
   '/Library/Frameworks/Python.framework/Versions/3.7/lib/python3.7/email/_encoded_words.py',
   'PYMODULE'),
  ('hashlib',
   '/Library/Frameworks/Python.framework/Versions/3.7/lib/python3.7/hashlib.py',
   'PYMODULE'),
  ('bisect',
   '/Library/Frameworks/Python.framework/Versions/3.7/lib/python3.7/bisect.py',
   'PYMODULE'),
  ('random',
   '/Library/Frameworks/Python.framework/Versions/3.7/lib/python3.7/random.py',
   'PYMODULE'),
  ('email.generator',
   '/Library/Frameworks/Python.framework/Versions/3.7/lib/python3.7/email/generator.py',
   'PYMODULE'),
  ('email.iterators',
   '/Library/Frameworks/Python.framework/Versions/3.7/lib/python3.7/email/iterators.py',
   'PYMODULE'),
  ('urllib',
   '/Library/Frameworks/Python.framework/Versions/3.7/lib/python3.7/urllib/__init__.py',
   'PYMODULE'),
  ('email._header_value_parser',
   '/Library/Frameworks/Python.framework/Versions/3.7/lib/python3.7/email/_header_value_parser.py',
   'PYMODULE'),
  ('email.headerregistry',
   '/Library/Frameworks/Python.framework/Versions/3.7/lib/python3.7/email/headerregistry.py',
   'PYMODULE'),
  ('email.quoprimime',
   '/Library/Frameworks/Python.framework/Versions/3.7/lib/python3.7/email/quoprimime.py',
   'PYMODULE'),
  ('email.contentmanager',
   '/Library/Frameworks/Python.framework/Versions/3.7/lib/python3.7/email/contentmanager.py',
   'PYMODULE'),
  ('email.policy',
   '/Library/Frameworks/Python.framework/Versions/3.7/lib/python3.7/email/policy.py',
   'PYMODULE'),
  ('email.message',
   '/Library/Frameworks/Python.framework/Versions/3.7/lib/python3.7/email/message.py',
   'PYMODULE'),
  ('bz2',
   '/Library/Frameworks/Python.framework/Versions/3.7/lib/python3.7/bz2.py',
   'PYMODULE'),
  ('lzma',
   '/Library/Frameworks/Python.framework/Versions/3.7/lib/python3.7/lzma.py',
   'PYMODULE'),
  ('_compression',
   '/Library/Frameworks/Python.framework/Versions/3.7/lib/python3.7/_compression.py',
   'PYMODULE'),
  ('gzip',
   '/Library/Frameworks/Python.framework/Versions/3.7/lib/python3.7/gzip.py',
   'PYMODULE'),
  ('tarfile',
   '/Library/Frameworks/Python.framework/Versions/3.7/lib/python3.7/tarfile.py',
   'PYMODULE'),
  ('py_compile',
   '/Library/Frameworks/Python.framework/Versions/3.7/lib/python3.7/py_compile.py',
   'PYMODULE'),
  ('socket',
   '/Library/Frameworks/Python.framework/Versions/3.7/lib/python3.7/socket.py',
   'PYMODULE'),
  ('webbrowser',
   '/Library/Frameworks/Python.framework/Versions/3.7/lib/python3.7/webbrowser.py',
   'PYMODULE'),
  ('pydoc',
   '/Library/Frameworks/Python.framework/Versions/3.7/lib/python3.7/pydoc.py',
   'PYMODULE'),
  ('getopt',
   '/Library/Frameworks/Python.framework/Versions/3.7/lib/python3.7/getopt.py',
   'PYMODULE'),
  ('pdb',
   '/Library/Frameworks/Python.framework/Versions/3.7/lib/python3.7/pdb.py',
   'PYMODULE'),
  ('unittest.util',
   '/Library/Frameworks/Python.framework/Versions/3.7/lib/python3.7/unittest/util.py',
   'PYMODULE'),
  ('unittest.result',
   '/Library/Frameworks/Python.framework/Versions/3.7/lib/python3.7/unittest/result.py',
   'PYMODULE'),
  ('_compat_pickle',
   '/Library/Frameworks/Python.framework/Versions/3.7/lib/python3.7/_compat_pickle.py',
   'PYMODULE'),
  ('pickle',
   '/Library/Frameworks/Python.framework/Versions/3.7/lib/python3.7/pickle.py',
   'PYMODULE'),
  ('pprint',
   '/Library/Frameworks/Python.framework/Versions/3.7/lib/python3.7/pprint.py',
   'PYMODULE'),
  ('unittest.case',
   '/Library/Frameworks/Python.framework/Versions/3.7/lib/python3.7/unittest/case.py',
   'PYMODULE'),
  ('unittest.suite',
   '/Library/Frameworks/Python.framework/Versions/3.7/lib/python3.7/unittest/suite.py',
   'PYMODULE'),
  ('fnmatch',
   '/Library/Frameworks/Python.framework/Versions/3.7/lib/python3.7/fnmatch.py',
   'PYMODULE'),
  ('unittest.loader',
   '/Library/Frameworks/Python.framework/Versions/3.7/lib/python3.7/unittest/loader.py',
   'PYMODULE'),
  ('unittest.runner',
   '/Library/Frameworks/Python.framework/Versions/3.7/lib/python3.7/unittest/runner.py',
   'PYMODULE'),
  ('unittest.main',
   '/Library/Frameworks/Python.framework/Versions/3.7/lib/python3.7/unittest/main.py',
   'PYMODULE'),
  ('unittest.signals',
   '/Library/Frameworks/Python.framework/Versions/3.7/lib/python3.7/unittest/signals.py',
   'PYMODULE'),
  ('unittest',
   '/Library/Frameworks/Python.framework/Versions/3.7/lib/python3.7/unittest/__init__.py',
   'PYMODULE'),
  ('doctest',
   '/Library/Frameworks/Python.framework/Versions/3.7/lib/python3.7/doctest.py',
   'PYMODULE'),
  ('stat',
   '/Library/Frameworks/Python.framework/Versions/3.7/lib/python3.7/stat.py',
   'PYMODULE'),
  ('genericpath',
   '/Library/Frameworks/Python.framework/Versions/3.7/lib/python3.7/genericpath.py',
   'PYMODULE'),
  ('string',
   '/Library/Frameworks/Python.framework/Versions/3.7/lib/python3.7/string.py',
   'PYMODULE'),
  ('ntpath',
   '/Library/Frameworks/Python.framework/Versions/3.7/lib/python3.7/ntpath.py',
   'PYMODULE'),
  ('signal',
   '/Library/Frameworks/Python.framework/Versions/3.7/lib/python3.7/signal.py',
   'PYMODULE'),
  ('contextlib',
   '/Library/Frameworks/Python.framework/Versions/3.7/lib/python3.7/contextlib.py',
   'PYMODULE'),
  ('_threading_local',
   '/Library/Frameworks/Python.framework/Versions/3.7/lib/python3.7/_threading_local.py',
   'PYMODULE'),
  ('threading',
   '/Library/Frameworks/Python.framework/Versions/3.7/lib/python3.7/threading.py',
   'PYMODULE'),
  ('selectors',
   '/Library/Frameworks/Python.framework/Versions/3.7/lib/python3.7/selectors.py',
   'PYMODULE'),
  ('subprocess',
   '/Library/Frameworks/Python.framework/Versions/3.7/lib/python3.7/subprocess.py',
   'PYMODULE'),
  ('token',
   '/Library/Frameworks/Python.framework/Versions/3.7/lib/python3.7/token.py',
   'PYMODULE'),
  ('struct',
   '/Library/Frameworks/Python.framework/Versions/3.7/lib/python3.7/struct.py',
   'PYMODULE'),
  ('gettext',
   '/Library/Frameworks/Python.framework/Versions/3.7/lib/python3.7/gettext.py',
   'PYMODULE'),
  ('copy',
   '/Library/Frameworks/Python.framework/Versions/3.7/lib/python3.7/copy.py',
   'PYMODULE'),
  ('textwrap',
   '/Library/Frameworks/Python.framework/Versions/3.7/lib/python3.7/textwrap.py',
   'PYMODULE'),
  ('argparse',
   '/Library/Frameworks/Python.framework/Versions/3.7/lib/python3.7/argparse.py',
   'PYMODULE'),
  ('tokenize',
   '/Library/Frameworks/Python.framework/Versions/3.7/lib/python3.7/tokenize.py',
   'PYMODULE'),
  ('pydub',
   '/Users/blord/Library/Python/3.7/lib/python/site-packages/pydub/__init__.py',
   'PYMODULE'),
  ('pydub.audio_segment',
   '/Users/blord/Library/Python/3.7/lib/python/site-packages/pydub/audio_segment.py',
   'PYMODULE'),
  ('pydub.exceptions',
   '/Users/blord/Library/Python/3.7/lib/python/site-packages/pydub/exceptions.py',
   'PYMODULE'),
  ('pydub.utils',
   '/Users/blord/Library/Python/3.7/lib/python/site-packages/pydub/utils.py',
   'PYMODULE'),
  ('json',
   '/Library/Frameworks/Python.framework/Versions/3.7/lib/python3.7/json/__init__.py',
   'PYMODULE'),
  ('json.encoder',
   '/Library/Frameworks/Python.framework/Versions/3.7/lib/python3.7/json/encoder.py',
   'PYMODULE'),
  ('json.decoder',
   '/Library/Frameworks/Python.framework/Versions/3.7/lib/python3.7/json/decoder.py',
   'PYMODULE'),
  ('json.scanner',
   '/Library/Frameworks/Python.framework/Versions/3.7/lib/python3.7/json/scanner.py',
   'PYMODULE'),
  ('pydub.logging_utils',
   '/Users/blord/Library/Python/3.7/lib/python/site-packages/pydub/logging_utils.py',
   'PYMODULE'),
  ('wave',
   '/Library/Frameworks/Python.framework/Versions/3.7/lib/python3.7/wave.py',
   'PYMODULE'),
  ('chunk',
   '/Library/Frameworks/Python.framework/Versions/3.7/lib/python3.7/chunk.py',
   'PYMODULE'),
  ('pydub.effects',
   '/Users/blord/Library/Python/3.7/lib/python/site-packages/pydub/effects.py',
   'PYMODULE'),
  ('pydub.silence',
   '/Users/blord/Library/Python/3.7/lib/python/site-packages/pydub/silence.py',
   'PYMODULE'),
  ('speech_recognition',
   '/Users/blord/Library/Python/3.7/lib/python/site-packages/speech_recognition/__init__.py',
   'PYMODULE'),
  ('distutils.version',
   '/Library/Frameworks/Python.framework/Versions/3.7/lib/python3.7/distutils/version.py',
   'PYMODULE'),
  ('distutils',
   '/Library/Frameworks/Python.framework/Versions/3.7/lib/python3.7/distutils/__init__.py',
   'PYMODULE'),
  ('uuid',
   '/Library/Frameworks/Python.framework/Versions/3.7/lib/python3.7/uuid.py',
   'PYMODULE'),
  ('ctypes.util',
   '/Library/Frameworks/Python.framework/Versions/3.7/lib/python3.7/ctypes/util.py',
   'PYMODULE'),
  ('ctypes._aix',
   '/Library/Frameworks/Python.framework/Versions/3.7/lib/python3.7/ctypes/_aix.py',
   'PYMODULE'),
  ('ctypes.macholib.dyld',
   '/Library/Frameworks/Python.framework/Versions/3.7/lib/python3.7/ctypes/macholib/dyld.py',
   'PYMODULE'),
  ('ctypes.macholib',
   '/Library/Frameworks/Python.framework/Versions/3.7/lib/python3.7/ctypes/macholib/__init__.py',
   'PYMODULE'),
  ('ctypes.macholib.dylib',
   '/Library/Frameworks/Python.framework/Versions/3.7/lib/python3.7/ctypes/macholib/dylib.py',
   'PYMODULE'),
  ('ctypes.macholib.framework',
   '/Library/Frameworks/Python.framework/Versions/3.7/lib/python3.7/ctypes/macholib/framework.py',
   'PYMODULE'),
  ('aifc',
   '/Library/Frameworks/Python.framework/Versions/3.7/lib/python3.7/aifc.py',
   'PYMODULE'),
  ('eyed3',
   '/Library/Frameworks/Python.framework/Versions/3.7/lib/python3.7/site-packages/eyed3/__init__.py',
   'PYMODULE'),
  ('eyed3.mp3',
   '/Library/Frameworks/Python.framework/Versions/3.7/lib/python3.7/site-packages/eyed3/mp3/__init__.py',
   'PYMODULE'),
  ('eyed3.mp3.headers',
   '/Library/Frameworks/Python.framework/Versions/3.7/lib/python3.7/site-packages/eyed3/mp3/headers.py',
   'PYMODULE'),
  ('eyed3.compat',
   '/Library/Frameworks/Python.framework/Versions/3.7/lib/python3.7/site-packages/eyed3/compat.py',
   'PYMODULE'),
  ('imp',
   '/Library/Frameworks/Python.framework/Versions/3.7/lib/python3.7/imp.py',
   'PYMODULE'),
  ('configparser',
   '/Library/Frameworks/Python.framework/Versions/3.7/lib/python3.7/configparser.py',
   'PYMODULE'),
  ('eyed3.utils.binfuncs',
   '/Library/Frameworks/Python.framework/Versions/3.7/lib/python3.7/site-packages/eyed3/utils/binfuncs.py',
   'PYMODULE'),
  ('eyed3.utils',
   '/Library/Frameworks/Python.framework/Versions/3.7/lib/python3.7/site-packages/eyed3/utils/__init__.py',
   'PYMODULE'),
  ('eyed3.id3',
   '/Library/Frameworks/Python.framework/Versions/3.7/lib/python3.7/site-packages/eyed3/id3/__init__.py',
   'PYMODULE'),
  ('eyed3.id3.tag',
   '/Library/Frameworks/Python.framework/Versions/3.7/lib/python3.7/site-packages/eyed3/id3/tag.py',
   'PYMODULE'),
  ('eyed3.id3.headers',
   '/Library/Frameworks/Python.framework/Versions/3.7/lib/python3.7/site-packages/eyed3/id3/headers.py',
   'PYMODULE'),
  ('eyed3.id3.apple',
   '/Library/Frameworks/Python.framework/Versions/3.7/lib/python3.7/site-packages/eyed3/id3/apple.py',
   'PYMODULE'),
  ('eyed3.id3.frames',
   '/Library/Frameworks/Python.framework/Versions/3.7/lib/python3.7/site-packages/eyed3/id3/frames.py',
   'PYMODULE'),
  ('eyed3.core',
   '/Library/Frameworks/Python.framework/Versions/3.7/lib/python3.7/site-packages/eyed3/core.py',
   'PYMODULE'),
  ('eyed3.utils.log',
   '/Library/Frameworks/Python.framework/Versions/3.7/lib/python3.7/site-packages/eyed3/utils/log.py',
   'PYMODULE'),
  ('eyed3.__about__',
   '/Library/Frameworks/Python.framework/Versions/3.7/lib/python3.7/site-packages/eyed3/__about__.py',
   'PYMODULE'),
  ('audiotools',
   '/Library/Frameworks/Python.framework/Versions/3.7/lib/python3.7/site-packages/audiotools/__init__.py',
   'PYMODULE'),
  ('audiotools.vorbiscomment',
   '/Library/Frameworks/Python.framework/Versions/3.7/lib/python3.7/site-packages/audiotools/vorbiscomment.py',
   'PYMODULE'),
  ('audiotools.m4a_atoms',
   '/Library/Frameworks/Python.framework/Versions/3.7/lib/python3.7/site-packages/audiotools/m4a_atoms.py',
   'PYMODULE'),
  ('audiotools.id3v1',
   '/Library/Frameworks/Python.framework/Versions/3.7/lib/python3.7/site-packages/audiotools/id3v1.py',
   'PYMODULE'),
  ('audiotools.id3',
   '/Library/Frameworks/Python.framework/Versions/3.7/lib/python3.7/site-packages/audiotools/id3.py',
   'PYMODULE'),
  ('audiotools.ape',
   '/Library/Frameworks/Python.framework/Versions/3.7/lib/python3.7/site-packages/audiotools/ape.py',
   'PYMODULE'),
  ('audiotools.tta',
   '/Library/Frameworks/Python.framework/Versions/3.7/lib/python3.7/site-packages/audiotools/tta.py',
   'PYMODULE'),
  ('audiotools.opus',
   '/Library/Frameworks/Python.framework/Versions/3.7/lib/python3.7/site-packages/audiotools/opus.py',
   'PYMODULE'),
  ('audiotools.ogg',
   '/Library/Frameworks/Python.framework/Versions/3.7/lib/python3.7/site-packages/audiotools/ogg.py',
   'PYMODULE'),
  ('audiotools.vorbis',
   '/Library/Frameworks/Python.framework/Versions/3.7/lib/python3.7/site-packages/audiotools/vorbis.py',
   'PYMODULE'),
  ('audiotools.mp3',
   '/Library/Frameworks/Python.framework/Versions/3.7/lib/python3.7/site-packages/audiotools/mp3.py',
   'PYMODULE'),
  ('audiotools.wavpack',
   '/Library/Frameworks/Python.framework/Versions/3.7/lib/python3.7/site-packages/audiotools/wavpack.py',
   'PYMODULE'),
  ('audiotools.flac',
   '/Library/Frameworks/Python.framework/Versions/3.7/lib/python3.7/site-packages/audiotools/flac.py',
   'PYMODULE'),
  ('audiotools.cdtoc',
   '/Library/Frameworks/Python.framework/Versions/3.7/lib/python3.7/site-packages/audiotools/cdtoc.py',
   'PYMODULE'),
  ('audiotools.aiff',
   '/Library/Frameworks/Python.framework/Versions/3.7/lib/python3.7/site-packages/audiotools/aiff.py',
   'PYMODULE'),
  ('audiotools.wav',
   '/Library/Frameworks/Python.framework/Versions/3.7/lib/python3.7/site-packages/audiotools/wav.py',
   'PYMODULE'),
  ('audiotools.au',
   '/Library/Frameworks/Python.framework/Versions/3.7/lib/python3.7/site-packages/audiotools/au.py',
   'PYMODULE'),
  ('audiotools.accuraterip',
   '/Library/Frameworks/Python.framework/Versions/3.7/lib/python3.7/site-packages/audiotools/accuraterip.py',
   'PYMODULE'),
  ('audiotools.freedb',
   '/Library/Frameworks/Python.framework/Versions/3.7/lib/python3.7/site-packages/audiotools/freedb.py',
   'PYMODULE'),
  ('audiotools.musicbrainz',
   '/Library/Frameworks/Python.framework/Versions/3.7/lib/python3.7/site-packages/audiotools/musicbrainz.py',
   'PYMODULE'),
  ('xml.dom.minidom',
   '/Library/Frameworks/Python.framework/Versions/3.7/lib/python3.7/xml/dom/minidom.py',
   'PYMODULE'),
  ('xml.dom.pulldom',
   '/Library/Frameworks/Python.framework/Versions/3.7/lib/python3.7/xml/dom/pulldom.py',
   'PYMODULE'),
  ('xml.dom.expatbuilder',
   '/Library/Frameworks/Python.framework/Versions/3.7/lib/python3.7/xml/dom/expatbuilder.py',
   'PYMODULE'),
  ('xml.dom.NodeFilter',
   '/Library/Frameworks/Python.framework/Versions/3.7/lib/python3.7/xml/dom/NodeFilter.py',
   'PYMODULE'),
  ('xml.dom.xmlbuilder',
   '/Library/Frameworks/Python.framework/Versions/3.7/lib/python3.7/xml/dom/xmlbuilder.py',
   'PYMODULE'),
  ('xml.dom.minicompat',
   '/Library/Frameworks/Python.framework/Versions/3.7/lib/python3.7/xml/dom/minicompat.py',
   'PYMODULE'),
  ('xml.dom.domreg',
   '/Library/Frameworks/Python.framework/Versions/3.7/lib/python3.7/xml/dom/domreg.py',
   'PYMODULE'),
  ('xml.dom',
   '/Library/Frameworks/Python.framework/Versions/3.7/lib/python3.7/xml/dom/__init__.py',
   'PYMODULE'),
  ('audiotools.cue',
   '/Library/Frameworks/Python.framework/Versions/3.7/lib/python3.7/site-packages/audiotools/cue/__init__.py',
   'PYMODULE'),
  ('audiotools.cue.yaccrules',
   '/Library/Frameworks/Python.framework/Versions/3.7/lib/python3.7/site-packages/audiotools/cue/yaccrules.py',
   'PYMODULE'),
  ('audiotools.cue.tokrules',
   '/Library/Frameworks/Python.framework/Versions/3.7/lib/python3.7/site-packages/audiotools/cue/tokrules.py',
   'PYMODULE'),
  ('audiotools.ply.yacc',
   '/Library/Frameworks/Python.framework/Versions/3.7/lib/python3.7/site-packages/audiotools/ply/yacc.py',
   'PYMODULE'),
  ('audiotools.ply',
   '/Library/Frameworks/Python.framework/Versions/3.7/lib/python3.7/site-packages/audiotools/ply/__init__.py',
   'PYMODULE'),
  ('audiotools.ply.lex',
   '/Library/Frameworks/Python.framework/Versions/3.7/lib/python3.7/site-packages/audiotools/ply/lex.py',
   'PYMODULE'),
  ('audiotools.toc',
   '/Library/Frameworks/Python.framework/Versions/3.7/lib/python3.7/site-packages/audiotools/toc/__init__.py',
   'PYMODULE'),
  ('audiotools.toc.yaccrules',
   '/Library/Frameworks/Python.framework/Versions/3.7/lib/python3.7/site-packages/audiotools/toc/yaccrules.py',
   'PYMODULE'),
  ('audiotools.toc.tokrules',
   '/Library/Frameworks/Python.framework/Versions/3.7/lib/python3.7/site-packages/audiotools/toc/tokrules.py',
   'PYMODULE'),
  ('audiotools.image',
   '/Library/Frameworks/Python.framework/Versions/3.7/lib/python3.7/site-packages/audiotools/image.py',
   'PYMODULE'),
  ('audiotools.m4a',
   '/Library/Frameworks/Python.framework/Versions/3.7/lib/python3.7/site-packages/audiotools/m4a.py',
   'PYMODULE'),
  ('audiotools.text',
   '/Library/Frameworks/Python.framework/Versions/3.7/lib/python3.7/site-packages/audiotools/text.py',
   'PYMODULE'),
  ('fractions',
   '/Library/Frameworks/Python.framework/Versions/3.7/lib/python3.7/fractions.py',
   'PYMODULE'),
  ('zipfile',
   '/Library/Frameworks/Python.framework/Versions/3.7/lib/python3.7/zipfile.py',
   'PYMODULE'),
  ('pathlib',
   '/Library/Frameworks/Python.framework/Versions/3.7/lib/python3.7/pathlib.py',
   'PYMODULE'),
  ('shutil',
   '/Library/Frameworks/Python.framework/Versions/3.7/lib/python3.7/shutil.py',
   'PYMODULE'),
  ('os',
   '/Library/Frameworks/Python.framework/Versions/3.7/lib/python3.7/os.py',
   'PYMODULE'),
  ('logging',
   '/Library/Frameworks/Python.framework/Versions/3.7/lib/python3.7/logging/__init__.py',
   'PYMODULE'),
  ('datetime',
   '/Library/Frameworks/Python.framework/Versions/3.7/lib/python3.7/datetime.py',
   'PYMODULE')])
